%YAML 1.1
%TAG !u! tag:unity3d.com,2011:
--- !u!74 &7400000
AnimationClip:
  m_ObjectHideFlags: 0
  m_PrefabParentObject: {fileID: 0}
  m_PrefabInternal: {fileID: 0}
  m_Name: P2-V1
  serializedVersion: 6
  m_Legacy: 0
  m_Compressed: 0
  m_UseHighQualityCurve: 1
  m_RotationCurves: []
  m_CompressedRotationCurves: []
  m_EulerCurves: []
  m_PositionCurves: []
  m_ScaleCurves: []
  m_FloatCurves: []
  m_PPtrCurves:
  - curve:
    - time: 0
      value: {fileID: 21300000, guid: 76632acdd7f385e479cf4b70dc0b6a45, type: 3}
    - time: 0.083333336
      value: {fileID: 21300000, guid: 569bb7b224270b84ba50758d8d55473a, type: 3}
    - time: 0.16666667
      value: {fileID: 21300000, guid: bc944717c2be87d41b71667106ee1b60, type: 3}
    - time: 0.25
      value: {fileID: 21300000, guid: 02432ddc02c0ff94fbc4674f3eebec9c, type: 3}
    - time: 0.33333334
      value: {fileID: 21300000, guid: 9cbeb9d2085fa644a850137eac4fcbf1, type: 3}
    - time: 0.41666666
      value: {fileID: 21300000, guid: f851444036f0769439d52eb3109d2a51, type: 3}
    - time: 0.5
      value: {fileID: 21300000, guid: e84fe15a7b47930469db74875bf03aba, type: 3}
    - time: 0.5833333
      value: {fileID: 21300000, guid: 796a257f139e5bd4f816bd62b5e427b6, type: 3}
    - time: 0.6666667
      value: {fileID: 21300000, guid: 431753a7be897c9418a0bb2a8a18e1fd, type: 3}
    - time: 0.75
      value: {fileID: 21300000, guid: afdebfcd5e842fa48ab756a6b9a35a8b, type: 3}
    - time: 0.8333333
      value: {fileID: 21300000, guid: 5cc2d2afb586390458fc3996a15a1079, type: 3}
    - time: 0.9166667
      value: {fileID: 21300000, guid: 0424cabf82e2e6344a4d2908df18f7d5, type: 3}
    - time: 1
      value: {fileID: 21300000, guid: 4af3bcf24b2f67b4a98636fdbc3d50cd, type: 3}
    - time: 1.0833334
      value: {fileID: 21300000, guid: fa711f285c3ad914f90073e57add69a5, type: 3}
    - time: 1.1666666
      value: {fileID: 21300000, guid: 40aee768d0ff8a44fab69eab99c92ad4, type: 3}
    - time: 1.25
      value: {fileID: 21300000, guid: 5effd03da5ea8bc4492951d591df8d6c, type: 3}
    - time: 1.3333334
      value: {fileID: 21300000, guid: f4f8bedf61046d545b4de105e23654f4, type: 3}
    - time: 1.4166666
      value: {fileID: 21300000, guid: 240ecf5252fb7c046af00828b86d7080, type: 3}
    - time: 1.5
      value: {fileID: 21300000, guid: 46c2b8d235f7db2469c39bf750913ecd, type: 3}
    - time: 1.5833334
      value: {fileID: 21300000, guid: 9a543b96222b73946978fc20a169eaab, type: 3}
    - time: 1.6666666
      value: {fileID: 21300000, guid: 09a70e3c60a985743b86e69597475449, type: 3}
    - time: 1.75
      value: {fileID: 21300000, guid: bdae1053e8c935c44bfe2db4b80574fd, type: 3}
    - time: 1.8333334
      value: {fileID: 21300000, guid: d7cc4136013cf4441852aa26a651aea3, type: 3}
    - time: 1.9166666
      value: {fileID: 21300000, guid: c361d3883f3a32e4daa24836d063f353, type: 3}
    - time: 2
      value: {fileID: 21300000, guid: 752218bfd8523dc4ca77075a6ab4e83c, type: 3}
    - time: 2.0833333
      value: {fileID: 21300000, guid: 4e7638957bf9c5a45b8958bd4df2c385, type: 3}
    - time: 2.1666667
      value: {fileID: 21300000, guid: 25076132bacc22f4f8bd33db122602c9, type: 3}
    - time: 2.25
      value: {fileID: 21300000, guid: 821f3fcf110a61547ad1a69d828eb73f, type: 3}
    - time: 2.3333333
      value: {fileID: 21300000, guid: ae5aabc45f4c29c40aeb27ded3c6ae78, type: 3}
    - time: 2.4166667
      value: {fileID: 21300000, guid: 63aa8d0cf52351b45ac88e8023c2ed8c, type: 3}
    - time: 2.5
      value: {fileID: 21300000, guid: 0abc1beb651907040a8f898c4bdc9063, type: 3}
    - time: 2.5833333
      value: {fileID: 21300000, guid: 2f1633e1ce18e3e4aa34de8f2db8933f, type: 3}
    - time: 2.6666667
      value: {fileID: 21300000, guid: e9a4b9fec552eac45b6e3f8adb7e789b, type: 3}
    - time: 2.75
      value: {fileID: 21300000, guid: c6b104eb5c8ff26448eda7e07f298b02, type: 3}
    - time: 2.8333333
      value: {fileID: 21300000, guid: 4b925ead484c1cc42bb63235996b64e3, type: 3}
    - time: 2.9166667
      value: {fileID: 21300000, guid: 004f4f84fdb42e645bae3d5c1044729c, type: 3}
    - time: 3
      value: {fileID: 21300000, guid: a4d81f8a7a0522a4784248e67b1b0193, type: 3}
    - time: 3.0833333
      value: {fileID: 21300000, guid: 8bf0c8a761087a7448b1184ee03c9ac5, type: 3}
    - time: 3.1666667
      value: {fileID: 21300000, guid: 9552a1751d51afe4986d6478e5ac79bb, type: 3}
    - time: 3.25
      value: {fileID: 21300000, guid: e52613799f2990d47b7f95b9fffb1d26, type: 3}
    - time: 3.3333333
      value: {fileID: 21300000, guid: 2fb707efc5524e74781dcfb399369d18, type: 3}
    - time: 3.4166667
      value: {fileID: 21300000, guid: f58cdac54a200ca4faa9fd3e16090f94, type: 3}
    - time: 3.5
      value: {fileID: 21300000, guid: eafa143cad916844d998e93fe5fd7f39, type: 3}
    - time: 3.5833333
      value: {fileID: 21300000, guid: b0296e60632f74d47aa20dd437f39c5d, type: 3}
    - time: 3.6666667
      value: {fileID: 21300000, guid: 115ad70a145de824d846455008fe9a48, type: 3}
    - time: 3.75
      value: {fileID: 21300000, guid: 2b58845d929a0d6438983599a91cd33f, type: 3}
    - time: 3.8333333
      value: {fileID: 21300000, guid: 7cf73b5a650dc7f4f8c4a659941770f1, type: 3}
    - time: 3.9166667
      value: {fileID: 21300000, guid: 767e0dc06c374854291d480ab899e8cd, type: 3}
    attribute: m_Sprite
    path: 
    classID: 212
    script: {fileID: 0}
  m_SampleRate: 12
  m_WrapMode: 0
  m_Bounds:
    m_Center: {x: 0, y: 0, z: 0}
    m_Extent: {x: 0, y: 0, z: 0}
  m_ClipBindingConstant:
    genericBindings:
    - serializedVersion: 2
      path: 0
      attribute: 0
      script: {fileID: 0}
      typeID: 212
      customType: 23
      isPPtrCurve: 1
    pptrCurveMapping:
    - {fileID: 21300000, guid: 76632acdd7f385e479cf4b70dc0b6a45, type: 3}
    - {fileID: 21300000, guid: 569bb7b224270b84ba50758d8d55473a, type: 3}
    - {fileID: 21300000, guid: bc944717c2be87d41b71667106ee1b60, type: 3}
    - {fileID: 21300000, guid: 02432ddc02c0ff94fbc4674f3eebec9c, type: 3}
    - {fileID: 21300000, guid: 9cbeb9d2085fa644a850137eac4fcbf1, type: 3}
    - {fileID: 21300000, guid: f851444036f0769439d52eb3109d2a51, type: 3}
    - {fileID: 21300000, guid: e84fe15a7b47930469db74875bf03aba, type: 3}
    - {fileID: 21300000, guid: 796a257f139e5bd4f816bd62b5e427b6, type: 3}
    - {fileID: 21300000, guid: 431753a7be897c9418a0bb2a8a18e1fd, type: 3}
    - {fileID: 21300000, guid: afdebfcd5e842fa48ab756a6b9a35a8b, type: 3}
    - {fileID: 21300000, guid: 5cc2d2afb586390458fc3996a15a1079, type: 3}
    - {fileID: 21300000, guid: 0424cabf82e2e6344a4d2908df18f7d5, type: 3}
    - {fileID: 21300000, guid: 4af3bcf24b2f67b4a98636fdbc3d50cd, type: 3}
    - {fileID: 21300000, guid: fa711f285c3ad914f90073e57add69a5, type: 3}
    - {fileID: 21300000, guid: 40aee768d0ff8a44fab69eab99c92ad4, type: 3}
    - {fileID: 21300000, guid: 5effd03da5ea8bc4492951d591df8d6c, type: 3}
    - {fileID: 21300000, guid: f4f8bedf61046d545b4de105e23654f4, type: 3}
    - {fileID: 21300000, guid: 240ecf5252fb7c046af00828b86d7080, type: 3}
    - {fileID: 21300000, guid: 46c2b8d235f7db2469c39bf750913ecd, type: 3}
    - {fileID: 21300000, guid: 9a543b96222b73946978fc20a169eaab, type: 3}
    - {fileID: 21300000, guid: 09a70e3c60a985743b86e69597475449, type: 3}
    - {fileID: 21300000, guid: bdae1053e8c935c44bfe2db4b80574fd, type: 3}
    - {fileID: 21300000, guid: d7cc4136013cf4441852aa26a651aea3, type: 3}
    - {fileID: 21300000, guid: c361d3883f3a32e4daa24836d063f353, type: 3}
    - {fileID: 21300000, guid: 752218bfd8523dc4ca77075a6ab4e83c, type: 3}
    - {fileID: 21300000, guid: 4e7638957bf9c5a45b8958bd4df2c385, type: 3}
    - {fileID: 21300000, guid: 25076132bacc22f4f8bd33db122602c9, type: 3}
    - {fileID: 21300000, guid: 821f3fcf110a61547ad1a69d828eb73f, type: 3}
    - {fileID: 21300000, guid: ae5aabc45f4c29c40aeb27ded3c6ae78, type: 3}
    - {fileID: 21300000, guid: 63aa8d0cf52351b45ac88e8023c2ed8c, type: 3}
    - {fileID: 21300000, guid: 0abc1beb651907040a8f898c4bdc9063, type: 3}
    - {fileID: 21300000, guid: 2f1633e1ce18e3e4aa34de8f2db8933f, type: 3}
    - {fileID: 21300000, guid: e9a4b9fec552eac45b6e3f8adb7e789b, type: 3}
    - {fileID: 21300000, guid: c6b104eb5c8ff26448eda7e07f298b02, type: 3}
    - {fileID: 21300000, guid: 4b925ead484c1cc42bb63235996b64e3, type: 3}
    - {fileID: 21300000, guid: 004f4f84fdb42e645bae3d5c1044729c, type: 3}
    - {fileID: 21300000, guid: a4d81f8a7a0522a4784248e67b1b0193, type: 3}
    - {fileID: 21300000, guid: 8bf0c8a761087a7448b1184ee03c9ac5, type: 3}
    - {fileID: 21300000, guid: 9552a1751d51afe4986d6478e5ac79bb, type: 3}
    - {fileID: 21300000, guid: e52613799f2990d47b7f95b9fffb1d26, type: 3}
    - {fileID: 21300000, guid: 2fb707efc5524e74781dcfb399369d18, type: 3}
    - {fileID: 21300000, guid: f58cdac54a200ca4faa9fd3e16090f94, type: 3}
    - {fileID: 21300000, guid: eafa143cad916844d998e93fe5fd7f39, type: 3}
    - {fileID: 21300000, guid: b0296e60632f74d47aa20dd437f39c5d, type: 3}
    - {fileID: 21300000, guid: 115ad70a145de824d846455008fe9a48, type: 3}
    - {fileID: 21300000, guid: 2b58845d929a0d6438983599a91cd33f, type: 3}
    - {fileID: 21300000, guid: 7cf73b5a650dc7f4f8c4a659941770f1, type: 3}
    - {fileID: 21300000, guid: 767e0dc06c374854291d480ab899e8cd, type: 3}
  m_AnimationClipSettings:
    serializedVersion: 2
    m_AdditiveReferencePoseClip: {fileID: 0}
    m_AdditiveReferencePoseTime: 0
    m_StartTime: 0
    m_StopTime: 4
    m_OrientationOffsetY: 0
    m_Level: 0
    m_CycleOffset: 0
    m_HasAdditiveReferencePose: 0
    m_LoopTime: 1
    m_LoopBlend: 0
    m_LoopBlendOrientation: 0
    m_LoopBlendPositionY: 0
    m_LoopBlendPositionXZ: 0
    m_KeepOriginalOrientation: 0
    m_KeepOriginalPositionY: 1
    m_KeepOriginalPositionXZ: 0
    m_HeightFromFeet: 0
    m_Mirror: 0
  m_EditorCurves: []
  m_EulerEditorCurves: []
  m_HasGenericRootTransform: 0
  m_HasMotionFloatCurves: 0
  m_GenerateMotionCurves: 0
  m_Events: []
