%YAML 1.1
%TAG !u! tag:unity3d.com,2011:
--- !u!21 &2100000
Material:
  serializedVersion: 6
  m_ObjectHideFlags: 0
  m_PrefabParentObject: {fileID: 0}
  m_PrefabInternal: {fileID: 0}
  m_Name: Cavebackground
  m_Shader: {fileID: 4800000, guid: 48dca5b99d113b8d11006bab44295342, type: 3}
  m_ShaderKeywords: 
  m_LightmapFlags: 5
  m_CustomRenderQueue: -1
  stringTagMap: {}
  m_SavedProperties:
    serializedVersion: 2
    m_TexEnvs:
    - first:
        name: _BumpMap
      second:
        m_Texture: {fileID: 2800000, guid: 8c29f7d58bcae41358236682570ea793, type: 3}
        m_Scale: {x: 1, y: 1}
        m_Offset: {x: 0, y: 0}
    - first:
        name: _MainTex
      second:
        m_Texture: {fileID: 2800000, guid: bfe7e18904903d0448897d9e1139b1b7, type: 3}
        m_Scale: {x: 4, y: 4}
        m_Offset: {x: 0, y: 0}
    - first:
        name: _Ramp
      second:
        m_Texture: {fileID: 2800000, guid: 4a056241e2722dc46a7262a8e7073fd9, type: 3}
        m_Scale: {x: 1, y: 1}
        m_Offset: {x: 0, y: 0}
    - first:
        name: _ToonShade
      second:
        m_Texture: {fileID: 0}
        m_Scale: {x: 1, y: 1}
        m_Offset: {x: 0, y: 0}
    m_Floats:
    - first:
        name: _Outline
      second: 0.002
    - first:
        name: _RimPower
      second: 8
    - first:
        name: _Shininess
      second: 0.078125
    m_Colors:
    - first:
        name: _Color
      second: {r: 0.35467127, g: 0.43359986, b: 0.58823526, a: 1}
    - first:
        name: _OutlineColor
      second: {r: 0, g: 0, b: 0, a: 1}
    - first:
        name: _RimColor
      second: {r: 0.35294116, g: 0, b: 0, a: 0}
    - first:
        name: _SpecColor
      second: {r: 0.5, g: 0.5, b: 0.5, a: 1}
