%YAML 1.1
%TAG !u! tag:unity3d.com,2011:
--- !u!1 &118908
GameObject:
  m_ObjectHideFlags: 0
  m_PrefabParentObject: {fileID: 0}
  m_PrefabInternal: {fileID: 100100000}
  serializedVersion: 4
  m_Component:
  - 4: {fileID: 418908}
  - 114: {fileID: 11418908}
  m_Layer: 0
  m_Name: ProjectilesManager
  m_TagString: Untagged
  m_Icon: {fileID: 0}
  m_NavMeshLayer: 0
  m_StaticEditorFlags: 0
  m_IsActive: 1
--- !u!4 &418908
Transform:
  m_ObjectHideFlags: 1
  m_PrefabParentObject: {fileID: 0}
  m_PrefabInternal: {fileID: 100100000}
  m_GameObject: {fileID: 118908}
  m_LocalRotation: {x: 0, y: 0, z: 0, w: 1}
  m_LocalPosition: {x: 34.1748505, y: 7.08634233, z: 25.078125}
  m_LocalScale: {x: 1, y: 1, z: 1}
  m_Children: []
  m_Father: {fileID: 0}
  m_RootOrder: 0
--- !u!114 &11418908
MonoBehaviour:
  m_ObjectHideFlags: 1
  m_PrefabParentObject: {fileID: 0}
  m_PrefabInternal: {fileID: 100100000}
  m_GameObject: {fileID: 118908}
  m_Enabled: 1
  m_EditorHideFlags: 0
  m_Script: {fileID: 11500000, guid: 5b175ca14cabe214b8f9d689133281d2, type: 3}
  m_Name: 
  m_EditorClassIdentifier: 
  BlastGlovesBasic: {fileID: 100000, guid: e7f5aaaca984686498133dfffe611c7d, type: 2}
  BlastGlovesImproved: {fileID: 0}
  EnemyBasic: {fileID: 100006, guid: 7422e37e42f444dca8601461b9da1146, type: 2}
  projectiles: []
--- !u!1001 &100100000
Prefab:
  m_ObjectHideFlags: 1
  serializedVersion: 2
  m_Modification:
    m_TransformParent: {fileID: 0}
    m_Modifications: []
    m_RemovedComponents: []
  m_ParentPrefab: {fileID: 0}
  m_RootGameObject: {fileID: 118908}
  m_IsPrefabParent: 1
  m_IsExploded: 1
