%YAML 1.1
%TAG !u! tag:unity3d.com,2011:
--- !u!114 &11400000
MonoBehaviour:
  m_ObjectHideFlags: 0
  m_PrefabParentObject: {fileID: 0}
  m_PrefabInternal: {fileID: 0}
  m_GameObject: {fileID: 0}
  m_Enabled: 1
  m_EditorHideFlags: 0
  m_Script: {fileID: 11500000, guid: 9c8028edab319344dadb461a45b084fb, type: 3}
  m_Name: AudioData
  m_EditorClassIdentifier: 
  themes:
  - ID: 2
    name: Main Menu
    file: {fileID: 8300000, guid: 0dd3fe01ffee57b4f91e40381c6cd27d, type: 3}
    mixerGroup: {fileID: 243573396536265746, guid: c2445803ed118354ca2f2b4d02360732,
      type: 2}
    priority: 128
    volume: 0.8
  - ID: 10
    name: World Map
    file: {fileID: 8300000, guid: b7b0dd895a4546549bff3a01dd2ee090, type: 3}
    mixerGroup: {fileID: 243573396536265746, guid: c2445803ed118354ca2f2b4d02360732,
      type: 2}
    priority: 128
    volume: 0.8
  - ID: 9
    name: Win Runs
    file: {fileID: 8300000, guid: dbc980a43b65d1e4c996d1080dae8702, type: 3}
    mixerGroup: {fileID: 243573396536265746, guid: c2445803ed118354ca2f2b4d02360732,
      type: 2}
    priority: 128
    volume: 0.8
  - ID: 6
    name: Toast Coast
    file: {fileID: 8300000, guid: 09b45a2f5f90c2e49813abb9d9396a77, type: 3}
    mixerGroup: {fileID: 243573396536265746, guid: c2445803ed118354ca2f2b4d02360732,
      type: 2}
    priority: 128
    volume: 0.8
  - ID: 8
    name: Kazan Army Fist
    file: {fileID: 8300000, guid: 6264890993d676d41a2c6ec4f82d8e02, type: 3}
    mixerGroup: {fileID: 243573396536265746, guid: c2445803ed118354ca2f2b4d02360732,
      type: 2}
    priority: 128
    volume: 0.8
  - ID: 7
    name: Grave Cave
    file: {fileID: 8300000, guid: a2cd2220b03691644ab92721396f8c8e, type: 3}
    mixerGroup: {fileID: 243573396536265746, guid: c2445803ed118354ca2f2b4d02360732,
      type: 2}
    priority: 128
    volume: 0.8
  - ID: 11
    name: Humble Jungle
    file: {fileID: 8300000, guid: 3335543f3a3270f4ebe98d52588ee349, type: 3}
    mixerGroup: {fileID: 243573396536265746, guid: c2445803ed118354ca2f2b4d02360732,
      type: 2}
    priority: 128
    volume: 0.8
  - ID: 12
    name: Prefab Lab
    file: {fileID: 8300000, guid: b0517a516695a394891aedd7906011fc, type: 3}
    mixerGroup: {fileID: 243573396536265746, guid: c2445803ed118354ca2f2b4d02360732,
      type: 2}
    priority: 128
    volume: 0.8
  themesCount: 13
  playerClips:
  - ID: 0
    name: Jump
    file: {fileID: 8300000, guid: ad1baadfe57f34d0e9431fc0cf6b3858, type: 3}
    mixerGroup: {fileID: 243160190064658196, guid: c2445803ed118354ca2f2b4d02360732,
      type: 2}
    priority: 128
    volume: 0.8
  - ID: 0
    name: Punch
    file: {fileID: 8300000, guid: 73f7aae53e6ee3e47b84b757b663f8bc, type: 3}
    mixerGroup: {fileID: 243160190064658196, guid: c2445803ed118354ca2f2b4d02360732,
      type: 2}
    priority: 128
    volume: 0.7
  - ID: 0
    name: Nothing Power Gloved
    file: {fileID: 8300000, guid: c8a7db4f8259c7d4f94551dcc65ff291, type: 3}
    mixerGroup: {fileID: 243160190064658196, guid: c2445803ed118354ca2f2b4d02360732,
      type: 2}
    priority: 128
    volume: 0.7
  - ID: 0
    name: Die
    file: {fileID: 8300000, guid: 8eefeefa6273f6a409c26addcdb5d879, type: 3}
    mixerGroup: {fileID: 243160190064658196, guid: c2445803ed118354ca2f2b4d02360732,
      type: 2}
    priority: 128
    volume: 0.695
  - ID: 0
    name: Damage
    file: {fileID: 8300000, guid: 05f13e57eff490a40a9de752405e1c88, type: 3}
    mixerGroup: {fileID: 243160190064658196, guid: c2445803ed118354ca2f2b4d02360732,
      type: 2}
    priority: 128
    volume: 0.8
  - ID: 0
    name: Travel
    file: {fileID: 8300000, guid: 840051cdd53014002b3ec841dffdcca6, type: 3}
    mixerGroup: {fileID: 243160190064658196, guid: c2445803ed118354ca2f2b4d02360732,
      type: 2}
    priority: 128
    volume: 0.8
  - ID: 0
    name: PowerOff
    file: {fileID: 8300000, guid: 8464e8eaa324f0541a7d280b7b71f9ad, type: 3}
    mixerGroup: {fileID: 243160190064658196, guid: c2445803ed118354ca2f2b4d02360732,
      type: 2}
    priority: 128
    volume: 0.8
  - ID: 0
    name: Drown
    file: {fileID: 8300000, guid: 1d4a48b8c2eca4962a424d17ca550784, type: 3}
    mixerGroup: {fileID: 243160190064658196, guid: c2445803ed118354ca2f2b4d02360732,
      type: 2}
    priority: 128
    volume: 0.8
  - ID: 0
    name: GroundedLow
    file: {fileID: 8300000, guid: 225283f3c890793479121d9b7b786b68, type: 3}
    mixerGroup: {fileID: 243160190064658196, guid: c2445803ed118354ca2f2b4d02360732,
      type: 2}
    priority: 128
    volume: 0.8
  - ID: 0
    name: Grounded
    file: {fileID: 8300000, guid: 885ceb50d77be44b8a976531dc3ede21, type: 3}
    mixerGroup: {fileID: 243160190064658196, guid: c2445803ed118354ca2f2b4d02360732,
      type: 2}
    priority: 128
    volume: 0.8
  - ID: 0
    name: Refill
    file: {fileID: 8300000, guid: 2bf29a2b620fd4bdfb94b95f46a65ac6, type: 3}
    mixerGroup: {fileID: 243160190064658196, guid: c2445803ed118354ca2f2b4d02360732,
      type: 2}
    priority: 128
    volume: 0.8
  - ID: 0
    name: Item
    file: {fileID: 8300000, guid: cca11fd3dc88a44c8aca82bf89cee0d2, type: 3}
    mixerGroup: {fileID: 243160190064658196, guid: c2445803ed118354ca2f2b4d02360732,
      type: 2}
    priority: 128
    volume: 0.8
  - ID: 0
    name: Bounce
    file: {fileID: 8300000, guid: a1660e7508e552445875d8825e89ca7e, type: 3}
    mixerGroup: {fileID: 243160190064658196, guid: c2445803ed118354ca2f2b4d02360732,
      type: 2}
    priority: 128
    volume: 0.8
  - ID: 0
    name: HighBounce
    file: {fileID: 8300000, guid: e14c502436626454192b49bbdb0a7416, type: 3}
    mixerGroup: {fileID: 243160190064658196, guid: c2445803ed118354ca2f2b4d02360732,
      type: 2}
    priority: 128
    volume: 0.8
  - ID: 0
    name: WallJump
    file: {fileID: 8300000, guid: 8861d54bb33a24e05aff676770708ca0, type: 3}
    mixerGroup: {fileID: 243160190064658196, guid: c2445803ed118354ca2f2b4d02360732,
      type: 2}
    priority: 128
    volume: 0.8
  - ID: 0
    name: NoEnergyFailShoot
    file: {fileID: 8300000, guid: a8815d789e6e847f9bfb6c20b45d2903, type: 3}
    mixerGroup: {fileID: 243160190064658196, guid: c2445803ed118354ca2f2b4d02360732,
      type: 2}
    priority: 128
    volume: 0.8
  - ID: 0
    name: Shoot
    file: {fileID: 8300000, guid: 5a54ccc7b422b4d0b9d7259a132873dd, type: 3}
    mixerGroup: {fileID: 243160190064658196, guid: c2445803ed118354ca2f2b4d02360732,
      type: 2}
    priority: 128
    volume: 0.65
  - ID: 0
    name: Roll
    file: {fileID: 8300000, guid: 03c63cfb0803e4523a36ee817a066eea, type: 3}
    mixerGroup: {fileID: 243160190064658196, guid: c2445803ed118354ca2f2b4d02360732,
      type: 2}
    priority: 128
    volume: 0.8
  - ID: 0
    name: RhdTargeted
    file: {fileID: 8300000, guid: dffd08b27568845318456e8d19944f37, type: 3}
    mixerGroup: {fileID: 243160190064658196, guid: c2445803ed118354ca2f2b4d02360732,
      type: 2}
    priority: 128
    volume: 0.8
  - ID: 0
    name: LowBattery
    file: {fileID: 8300000, guid: 971af1393d2ea4c4f9545b16d13fd5dc, type: 3}
    mixerGroup: {fileID: 243160190064658196, guid: c2445803ed118354ca2f2b4d02360732,
      type: 2}
    priority: 128
    volume: 0.3
  - ID: 0
    name: Dot
    file: {fileID: 8300000, guid: 481ba466da985664c8d45d5405517bd2, type: 3}
    mixerGroup: {fileID: 243160190064658196, guid: c2445803ed118354ca2f2b4d02360732,
      type: 2}
    priority: 128
    volume: 0.6
  - ID: 0
    name: Inertia
    file: {fileID: 8300000, guid: e852e04e1017831449aa3f0295856144, type: 3}
    mixerGroup: {fileID: 243160190064658196, guid: c2445803ed118354ca2f2b4d02360732,
      type: 2}
    priority: 128
    volume: 0.5
  enemiesClips:
  - ID: 0
    name: Ding
    file: {fileID: 8300000, guid: 4ad6f42f723914a4db0eaee844fb27c0, type: 3}
    mixerGroup: {fileID: 243389666429439210, guid: c2445803ed118354ca2f2b4d02360732,
      type: 2}
    priority: 128
    volume: 1
  - ID: 0
    name: Spawn
    file: {fileID: 8300000, guid: 2f2890f01799a4b4691a8ccd5de1df64, type: 3}
    mixerGroup: {fileID: 243389666429439210, guid: c2445803ed118354ca2f2b4d02360732,
      type: 2}
    priority: 128
    volume: 1
  - ID: 0
    name: ActivateDocClock
    file: {fileID: 8300000, guid: 9ce8bbce396405a4d8c884dd2ccde8b0, type: 3}
    mixerGroup: {fileID: 243389666429439210, guid: c2445803ed118354ca2f2b4d02360732,
      type: 2}
    priority: 128
    volume: 1
  - ID: 0
    name: StvExplosion
    file: {fileID: 8300000, guid: 6362202226318489bbc230b1ae55e29f, type: 3}
    mixerGroup: {fileID: 243389666429439210, guid: c2445803ed118354ca2f2b4d02360732,
      type: 2}
    priority: 128
    volume: 1
  - ID: 0
    name: Shot
    file: {fileID: 8300000, guid: f41a747c2fc3a48b8967137233c205e0, type: 3}
    mixerGroup: {fileID: 243389666429439210, guid: c2445803ed118354ca2f2b4d02360732,
      type: 2}
    priority: 128
    volume: 1
  - ID: 0
    name: Squak
    file: {fileID: 8300000, guid: c7b02c1d6d1244223a9914321c11f04d, type: 3}
    mixerGroup: {fileID: 243389666429439210, guid: c2445803ed118354ca2f2b4d02360732,
      type: 2}
    priority: 128
    volume: 1
  enviroClips:
  - ID: 0
    name: BreakableCollide
    file: {fileID: 8300000, guid: 0f177b65fc94346d3a05ea96ae5f31e9, type: 3}
    mixerGroup: {fileID: 243330384986395206, guid: c2445803ed118354ca2f2b4d02360732,
      type: 2}
    priority: 128
    volume: 1
  - ID: 0
    name: Click
    file: {fileID: 8300000, guid: 4827021c92137400099867efe0f18fac, type: 3}
    mixerGroup: {fileID: 243330384986395206, guid: c2445803ed118354ca2f2b4d02360732,
      type: 2}
    priority: 128
    volume: 1
  - ID: 0
    name: SelectOption
    file: {fileID: 8300000, guid: 4827021c92137400099867efe0f18fac, type: 3}
    mixerGroup: {fileID: 243330384986395206, guid: c2445803ed118354ca2f2b4d02360732,
      type: 2}
    priority: 128
    volume: 0.5
  - ID: 0
    name: CheckPoint
    file: {fileID: 8300000, guid: 72273378f7dd4477e92934b4c93bf54d, type: 3}
    mixerGroup: {fileID: 243330384986395206, guid: c2445803ed118354ca2f2b4d02360732,
      type: 2}
    priority: 128
    volume: 0.8
  - ID: 0
    name: Checkpoint Repawn
    file: {fileID: 8300000, guid: 950a89c788f51524fa0ab561440ae433, type: 3}
    mixerGroup: {fileID: 243330384986395206, guid: c2445803ed118354ca2f2b4d02360732,
      type: 2}
    priority: 128
    volume: 0.8
  - ID: 0
    name: PickElement
    file: {fileID: 8300000, guid: 150ef74be28784151b1ab95fc7d0803e, type: 3}
    mixerGroup: {fileID: 243330384986395206, guid: c2445803ed118354ca2f2b4d02360732,
      type: 2}
    priority: 128
    volume: 1
  - ID: 0
    name: PauseMenu
    file: {fileID: 8300000, guid: ae3ed48b9e47c4813b9dc3ea83ac8df5, type: 3}
    mixerGroup: {fileID: 243330384986395206, guid: c2445803ed118354ca2f2b4d02360732,
      type: 2}
    priority: 128
    volume: 1
  - ID: 0
    name: Counter
    file: {fileID: 8300000, guid: 2e05d5bf8844e407ebbf4826f5f13253, type: 3}
    mixerGroup: {fileID: 243330384986395206, guid: c2445803ed118354ca2f2b4d02360732,
      type: 2}
    priority: 128
    volume: 0.5
  - ID: 0
    name: Coins
    file: {fileID: 8300000, guid: 0d174141d2995413f99e7e77bb341028, type: 3}
    mixerGroup: {fileID: 243330384986395206, guid: c2445803ed118354ca2f2b4d02360732,
      type: 2}
    priority: 128
    volume: 1
  - ID: 0
    name: SpeedRun
    file: {fileID: 8300000, guid: 59f96b57a55ef4653b7022a2c34566e4, type: 3}
    mixerGroup: {fileID: 243330384986395206, guid: c2445803ed118354ca2f2b4d02360732,
      type: 2}
    priority: 128
    volume: 0.5
  - ID: 0
    name: Respect
    file: {fileID: 8300000, guid: 7dddb21850e3c4a1a8a688593f9c6c27, type: 3}
    mixerGroup: {fileID: 243330384986395206, guid: c2445803ed118354ca2f2b4d02360732,
      type: 2}
    priority: 128
    volume: 0.5
  - ID: 0
    name: BlueSubstanceIn
    file: {fileID: 8300000, guid: cc5c32a63df274548aa3fd0b61dcb88d, type: 3}
    mixerGroup: {fileID: 243330384986395206, guid: c2445803ed118354ca2f2b4d02360732,
      type: 2}
    priority: 128
    volume: 0.8
  - ID: 0
    name: BlueSubstanceOut
    file: {fileID: 8300000, guid: d20d42f311561ee40a1cb9ce91bebd05, type: 3}
    mixerGroup: {fileID: 243330384986395206, guid: c2445803ed118354ca2f2b4d02360732,
      type: 2}
    priority: 256
    volume: 0.8
  - ID: 0
    name: Finish Line
    file: {fileID: 8300000, guid: d9db46b62fbf19840af521e559d2d46b, type: 3}
    mixerGroup: {fileID: 243330384986395206, guid: c2445803ed118354ca2f2b4d02360732,
      type: 2}
    priority: 128
    volume: 0.6
  - ID: 0
    name: WorldMap Stage In
    file: {fileID: 8300000, guid: 6e0226a0385e544449b5107f1d45ee36, type: 3}
    mixerGroup: {fileID: 243330384986395206, guid: c2445803ed118354ca2f2b4d02360732,
      type: 2}
    priority: 128
    volume: 0.8
  - ID: 0
    name: StartStage
    file: {fileID: 8300000, guid: 97ff7ed031a7e1940b7fdf36395acb6e, type: 3}
    mixerGroup: {fileID: 243330384986395206, guid: c2445803ed118354ca2f2b4d02360732,
      type: 2}
    priority: 128
    volume: 0.8
  - ID: 0
    name: Drown
    file: {fileID: 8300000, guid: 1d4a48b8c2eca4962a424d17ca550784, type: 3}
    mixerGroup: {fileID: 243330384986395206, guid: c2445803ed118354ca2f2b4d02360732,
      type: 2}
    priority: 128
    volume: 0.8
