%YAML 1.1
%TAG !u! tag:unity3d.com,2011:
--- !u!21 &2100000
Material:
  serializedVersion: 5
  m_ObjectHideFlags: 0
  m_PrefabParentObject: {fileID: 0}
  m_PrefabInternal: {fileID: 0}
  m_Name: CFX4_SpaceThruster AddSoft
  m_Shader: {fileID: 202, guid: 0000000000000000f000000000000000, type: 0}
  m_ShaderKeywords: 
  m_LightmapFlags: 5
  m_CustomRenderQueue: -1
  m_SavedProperties:
    serializedVersion: 2
    m_TexEnvs:
      data:
        first:
          name: _MainTex
        second:
          m_Texture: {fileID: 2800000, guid: 481635e923fb9904a9aa91f7bb063d50, type: 3}
          m_Scale: {x: 1, y: 1}
          m_Offset: {x: 0, y: 0}
    m_Floats:
      data:
        first:
          name: _InvFade
        second: 1
    m_Colors:
      data:
        first:
          name: _Color
        second: {r: 1, g: 1, b: 1, a: 1}
      data:
        first:
          name: _BaseColor
        second: {r: 0, g: 0, b: 0, a: .392156869}
      data:
        first:
          name: _TintColor
        second: {r: .501960814, g: .501960814, b: .501960814, a: .501960814}
      data:
        first:
          name: _MaskColor
        second: {r: .33088237, g: 0, b: 0, a: .392156869}
--- !u!1002 &2100001
EditorExtensionImpl:
  serializedVersion: 6
