%YAML 1.1
%TAG !u! tag:unity3d.com,2011:
--- !u!78 &1
TagManager:
  serializedVersion: 2
  tags:
  - LavaWall
  - FreezeTheWave
  - CameraTarget
  - FinishLine
  - Trigger
  - Kill
  - Whatever
  - Pickeable
  - BeachFloor
  - SecureTriggerTop
  - Handler
  - RockEnemy
  - EditorColliders
  - KamikazansWater
  - KamikazansSand
  - KKRobot
  - RedHotEnergy
  - RedHotAura
  - FxTemporaire
  - MagnetPoint
  - Enemy
  - TravellingHero
  - SpawnPoint
  - GUIHelperCanvas
  - StageManager
  layers:
  - Default
  - TransparentFX
  - Ignore Raycast
  - 
  - Water
  - UI
  - 
  - 
  - Debug
  - Player
  - NoReflNoRefr
  - Enemy
  - Ground
  - NoCollsision
  - EnemyFactory
  - Smoke
  - WaterOwn
  - Background
  - IngameGUI
  - BouncingObject
  - RedHotDot
  - 
  - OneWayPlatform
  - RedHotDensity
  - FirstLineIlumination
  - Projectiles
  - BlueSubstance
  - IgnoredEnemy
  - FinalBoss
  - 
  - 
  - 
  m_SortingLayers:
  - name: Default
    uniqueID: 0
    locked: 0
  - name: UI
    uniqueID: 1520050699
    locked: 0
