%YAML 1.1
%TAG !u! tag:unity3d.com,2011:
--- !u!21 &2100000
Material:
  serializedVersion: 5
  m_ObjectHideFlags: 0
  m_PrefabParentObject: {fileID: 0}
  m_PrefabInternal: {fileID: 0}
  m_Name: GraveCaveMist
  m_Shader: {fileID: 200, guid: 0000000000000000f000000000000000, type: 0}
  m_ShaderKeywords: 
  m_LightmapFlags: 5
  m_CustomRenderQueue: -1
  m_SavedProperties:
    serializedVersion: 2
    m_TexEnvs:
      data:
        first:
          name: _MainTex
        second:
          m_Texture: {fileID: 2800000, guid: e6f9b32c37afc44c88155c85dabce61c, type: 3}
          m_Scale: {x: .5, y: 1}
          m_Offset: {x: .5, y: 0}
    m_Floats:
      data:
        first:
          name: _Cutoff
        second: .0895522609
      data:
        first:
          name: _InvFade
        second: 2.44160724
    m_Colors:
      data:
        first:
          name: _Color
        second: {r: .438461542, g: .438461542, b: .438461542, a: 1}
      data:
        first:
          name: _TintColor
        second: {r: .801254272, g: .81069082, b: .838235259, a: .501960814}
      data:
        first:
          name: _EmisColor
        second: {r: .200000003, g: .200000003, b: .200000003, a: 0}
--- !u!1002 &2100001
EditorExtensionImpl:
  serializedVersion: 6
